%YAML 1.1
%TAG !u! tag:unity3d.com,2011:
--- !u!74 &7400000
AnimationClip:
  m_ObjectHideFlags: 0
  m_PrefabParentObject: {fileID: 0}
  m_PrefabInternal: {fileID: 0}
  m_Name: CoinAnimatio2
  serializedVersion: 6
  m_Legacy: 0
  m_Compressed: 0
  m_UseHighQualityCurve: 1
  m_RotationCurves: []
  m_CompressedRotationCurves: []
  m_EulerCurves: []
  m_PositionCurves: []
  m_ScaleCurves: []
  m_FloatCurves: []
  m_PPtrCurves:
  - curve:
    - time: 0
      value: {fileID: 21300000, guid: 0ca730ce7de6c6a44a736e6d5fb08ecc, type: 3}
    - time: 0.083333336
      value: {fileID: 21300000, guid: ac79edb4a68fd7a4da7bc63aa65ceda3, type: 3}
    - time: 0.16666667
      value: {fileID: 21300000, guid: 0a78cf85f9051204db2d29b987fdbf3c, type: 3}
    - time: 0.25
      value: {fileID: 21300000, guid: 76335bd232db0aa44948af7af403124d, type: 3}
    - time: 0.33333334
      value: {fileID: 21300000, guid: a9a0070104aa9b0438d7e73d4117f210, type: 3}
    - time: 0.41666666
      value: {fileID: 21300000, guid: 65268f959ff4e6147bd5e0d3616168de, type: 3}
    - time: 0.5
      value: {fileID: 21300000, guid: 0c5c22c50752aee428a39dd980122f38, type: 3}
    - time: 0.5833333
      value: {fileID: 21300000, guid: 86ed6659d27a7fe4295215628f43dfee, type: 3}
    - time: 0.6666667
      value: {fileID: 21300000, guid: 71362eeb02d1e8c4192243e61f5a8f30, type: 3}
    - time: 0.75
      value: {fileID: 21300000, guid: dfa73ca92daccb94b890dc4e3f5b5fef, type: 3}
    - time: 0.8333333
      value: {fileID: 21300000, guid: 46f5e58d5081bc64abc2ab3babe5b872, type: 3}
    - time: 0.9166667
      value: {fileID: 21300000, guid: 798cfdc6e87910449ae9c27bfd993a1d, type: 3}
    - time: 1
      value: {fileID: 21300000, guid: 91340853b350e9146973723344eb39fb, type: 3}
    - time: 1.0833334
      value: {fileID: 21300000, guid: ec167f594ff339f49b8dc3e2c78a7d7d, type: 3}
    - time: 1.1666666
      value: {fileID: 21300000, guid: 6eba1eae469401f4cadee1e9007944b9, type: 3}
    - time: 1.25
      value: {fileID: 21300000, guid: f63c5baf04d0c3442b43bf7e708a8647, type: 3}
    attribute: m_Sprite
    path: 
    classID: 212
    script: {fileID: 0}
  m_SampleRate: 12
  m_WrapMode: 0
  m_Bounds:
    m_Center: {x: 0, y: 0, z: 0}
    m_Extent: {x: 0, y: 0, z: 0}
  m_ClipBindingConstant:
    genericBindings:
    - serializedVersion: 2
      path: 0
      attribute: 0
      script: {fileID: 0}
      typeID: 212
      customType: 23
      isPPtrCurve: 1
    pptrCurveMapping:
    - {fileID: 21300000, guid: 0ca730ce7de6c6a44a736e6d5fb08ecc, type: 3}
    - {fileID: 21300000, guid: ac79edb4a68fd7a4da7bc63aa65ceda3, type: 3}
    - {fileID: 21300000, guid: 0a78cf85f9051204db2d29b987fdbf3c, type: 3}
    - {fileID: 21300000, guid: 76335bd232db0aa44948af7af403124d, type: 3}
    - {fileID: 21300000, guid: a9a0070104aa9b0438d7e73d4117f210, type: 3}
    - {fileID: 21300000, guid: 65268f959ff4e6147bd5e0d3616168de, type: 3}
    - {fileID: 21300000, guid: 0c5c22c50752aee428a39dd980122f38, type: 3}
    - {fileID: 21300000, guid: 86ed6659d27a7fe4295215628f43dfee, type: 3}
    - {fileID: 21300000, guid: 71362eeb02d1e8c4192243e61f5a8f30, type: 3}
    - {fileID: 21300000, guid: dfa73ca92daccb94b890dc4e3f5b5fef, type: 3}
    - {fileID: 21300000, guid: 46f5e58d5081bc64abc2ab3babe5b872, type: 3}
    - {fileID: 21300000, guid: 798cfdc6e87910449ae9c27bfd993a1d, type: 3}
    - {fileID: 21300000, guid: 91340853b350e9146973723344eb39fb, type: 3}
    - {fileID: 21300000, guid: ec167f594ff339f49b8dc3e2c78a7d7d, type: 3}
    - {fileID: 21300000, guid: 6eba1eae469401f4cadee1e9007944b9, type: 3}
    - {fileID: 21300000, guid: f63c5baf04d0c3442b43bf7e708a8647, type: 3}
  m_AnimationClipSettings:
    serializedVersion: 2
    m_AdditiveReferencePoseClip: {fileID: 0}
    m_AdditiveReferencePoseTime: 0
    m_StartTime: 0
    m_StopTime: 1.3333334
    m_OrientationOffsetY: 0
    m_Level: 0
    m_CycleOffset: 0
    m_HasAdditiveReferencePose: 0
    m_LoopTime: 1
    m_LoopBlend: 0
    m_LoopBlendOrientation: 0
    m_LoopBlendPositionY: 0
    m_LoopBlendPositionXZ: 0
    m_KeepOriginalOrientation: 0
    m_KeepOriginalPositionY: 1
    m_KeepOriginalPositionXZ: 0
    m_HeightFromFeet: 0
    m_Mirror: 0
  m_EditorCurves: []
  m_EulerEditorCurves: []
  m_HasGenericRootTransform: 0
  m_HasMotionFloatCurves: 0
  m_GenerateMotionCurves: 0
  m_Events: []
